COMP529 Big Data Analytics: CA2 (PCA Assignment)
…
Make sure you include only the common dates from Q4,
otherwise you will see NAs.

# YOUR CODE GOES HERE
close_wide <- filtered_date %>%
  filter(Date %in% final_dates) %>%
  select(Date,Name,Close) %>%
  pivot_wider(
    names_from = Name,
    values_from = Close
  )
print(close_wide)

## # A tibble: 755 × 491
##    Date           A  AAPL  ABBV   ABT  ACGL   ACN  ADBE   ADI   ADM   ADP  ADSK
##    <date>     <dbl> <dbl> <dbl> <dbl> <dbl> <dbl> <dbl> <dbl> <dbl> <dbl> <dbl>
##  1 2019-11-01  76.3  62.3  79.1  82.6  41.4  186.  277.  108.  42.0  162.  148.
##  2 2019-11-04  76.7  63.8  82.1  82.2  40.8  187.  276.  110.  42.5  162.  150.
##  3 2019-11-05  75.5  64.1  81.5  80.9  40.2  185.  284.  111.  42.9  157.  149.
##  4 2019-11-06  74.9  63.8  80.4  82.4  40.6  187.  286.  111.  42.8  157.  150.
##  5 2019-11-07  75.7  64.5  81.1  82.9  40.4  189.  287   112.  43.1  160.  151 
##  6 2019-11-08  75.6  64.2  82.1  83.2  40.3  188.  288.  111.  42.9  161.  150.
##  7 2019-11-11  76.1  64.6  83.9  83.3  40.4  189.  290.  111.  43.0  162.  152.
##  8 2019-11-12  76.7  65.2  85.6  83.7  40.2  190.  290.  113.  43.0  164.  154.
##  9 2019-11-13  76.6  65.3  85.3  83.3  40.1  190.  290.  112.  42.7  166.  156.
## 10 2019-11-14  76.5  65.5  85.9  83.7  40.5  194.  292.  113.  42.6  168.  157.
## # ℹ 745 more rows
## # ℹ 479 more variables: AEE <dbl>, AEP <dbl>, AES <dbl>, AFL <dbl>, AIG <dbl>,
## #   AIZ <dbl>, AJG <dbl>, AKAM <dbl>, ALB <dbl>, ALGN <dbl>, ALL <dbl>,
## #   ALLE <dbl>, AMAT <dbl>, AMCR <dbl>, AMD <dbl>, AME <dbl>, AMGN <dbl>,
## #   AMP <dbl>, AMT <dbl>, AMZN <dbl>, ANET <dbl>, ANSS <dbl>, AON <dbl>,
## #   AOS <dbl>, APA <dbl>, APD <dbl>, APH <dbl>, APTV <dbl>, ARE <dbl>,
## #   ATO <dbl>, AVB <dbl>, AVGO <dbl>, AVY <dbl>, AWK <dbl>, AXON <dbl>, …
…
Remember:
return = (price_t - price_{t-1}) / price_{t-1}

The first row of returns will be NA for every stock.
slice() may be useful.

# YOUR CODE GOES HERE
simple_returns <- close_wide %>%
  arrange(Date) %>%
  mutate(across(-Date, ~(.)/ lag(.)-1))%>%
  slice(-1)
print(simple_returns)

## # A tibble: 754 × 491
##    Date               A      AAPL     ABBV      ABT      ACGL      ACN      ADBE
##    <date>         <dbl>     <dbl>    <dbl>    <dbl>     <dbl>    <dbl>     <dbl>
##  1 2019-11-04  0.00537   0.0250    0.0380  -0.00472 -0.0121    0.00688  -4.40e-3
##  2 2019-11-05 -0.0164    0.00368  -0.00816 -0.0161  -0.0152   -0.0102    2.74e-2
##  3 2019-11-06 -0.00702  -0.00371  -0.0137   0.0183   0.00994   0.00771   7.09e-3
##  4 2019-11-07  0.00987   0.0107    0.00909  0.00643 -0.00517   0.00942   4.87e-3
##  5 2019-11-08 -0.000396 -0.00487   0.0125   0.00326 -0.00272  -0.00212   5.16e-3
##  6 2019-11-11  0.00635   0.00556   0.0220   0.00156  0.00174   0.00149   4.23e-3
##  7 2019-11-12  0.00775   0.0102    0.0197   0.00420 -0.00545   0.00700   1.97e-3
##  8 2019-11-13 -0.00209   0.000583 -0.00257 -0.00466 -0.000996  0.00327  -3.45e-5
##  9 2019-11-14 -0.00104   0.00394   0.00703  0.00492  0.00847   0.0175    6.51e-3
## 10 2019-11-15  0.00170   0.00348   0.0155   0.00860 -0.00198   0.0102    4.83e-3
## # ℹ 744 more rows
## # ℹ 483 more variables: ADI <dbl>, ADM <dbl>, ADP <dbl>, ADSK <dbl>, AEE <dbl>,
## #   AEP <dbl>, AES <dbl>, AFL <dbl>, AIG <dbl>, AIZ <dbl>, AJG <dbl>,
## #   AKAM <dbl>, ALB <dbl>, ALGN <dbl>, ALL <dbl>, ALLE <dbl>, AMAT <dbl>,
## #   AMCR <dbl>, AMD <dbl>, AME <dbl>, AMGN <dbl>, AMP <dbl>, AMT <dbl>,
## #   AMZN <dbl>, ANET <dbl>, ANSS <dbl>, AON <dbl>, AOS <dbl>, APA <dbl>,
## #   APD <dbl>, APH <dbl>, APTV <dbl>, ARE <dbl>, ATO <dbl>, AVB <dbl>, …
…
